VHDL_ASM/tb_counter/simulation/qsim/count_1.msim.vcd
$comment
	File created using the following command:
		vcd file count_1.msim.vcd -direction
$end
$date
	Sat May 04 12:19:20 2024
$end
$version
	ModelSim Version 10.5b
$end
$timescale
	1ps
$end

$scope module count_1_vhd_vec_tst $end
$var wire 1 ! clock $end
$var wire 1 " enb $end
$var wire 1 # Qs [9] $end
$var wire 1 $ Qs [8] $end
$var wire 1 % Qs [7] $end
$var wire 1 & Qs [6] $end
$var wire 1 ' Qs [5] $end
$var wire 1 ( Qs [4] $end
$var wire 1 ) Qs [3] $end
$var wire 1 * Qs [2] $end
$var wire 1 + Qs [1] $end
$var wire 1 , Qs [0] $end
$var wire 1 - reset_c $end

$scope module i1 $end
$var wire 1 . gnd $end
$var wire 1 / vcc $end
$var wire 1 0 unknown $end
$var wire 1 1 devoe $end
$var wire 1 2 devclrn $end
$var wire 1 3 devpor $end
$var wire 1 4 ww_devoe $end
$var wire 1 5 ww_devclrn $end
$var wire 1 6 ww_devpor $end
$var wire 1 7 ww_enb $end
$var wire 1 8 ww_clock $end
$var wire 1 9 ww_reset_c $end
$var wire 1 : ww_Qs [9] $end
$var wire 1 ; ww_Qs [8] $end
$var wire 1 < ww_Qs [7] $end
$var wire 1 = ww_Qs [6] $end
$var wire 1 > ww_Qs [5] $end
$var wire 1 ? ww_Qs [4] $end
$var wire 1 @ ww_Qs [3] $end
$var wire 1 A ww_Qs [2] $end
$var wire 1 B ww_Qs [1] $end
$var wire 1 C ww_Qs [0] $end
$var wire 1 D \~QUARTUS_CREATED_GND~I_combout\ $end
$var wire 1 E \clock~input_o\ $end
$var wire 1 F \clock~inputCLKENA0_outclk\ $end
$var wire 1 G \enb~input_o\ $end
$var wire 1 H \tf1|Q~0_combout\ $end
$var wire 1 I \reset_c~input_o\ $end
$var wire 1 J \tf1|Q~q\ $end
$var wire 1 K \G:1:tf|Q~0_combout\ $end
$var wire 1 L \G:1:tf|Q~q\ $end
$var wire 1 M \G:2:tf|Q~0_combout\ $end
$var wire 1 N \G:2:tf|Q~q\ $end
$var wire 1 O \G:3:tf|Q~0_combout\ $end
$var wire 1 P \G:3:tf|Q~q\ $end
$var wire 1 Q \G:4:tf|Q~0_combout\ $end
$var wire 1 R \G:4:tf|Q~q\ $end
$var wire 1 S \G:5:tf|Q~0_combout\ $end
$var wire 1 T \G:5:tf|Q~q\ $end
$var wire 1 U \G:6:tf|Q~0_combout\ $end
$var wire 1 V \G:6:tf|Q~q\ $end
$var wire 1 W \G:7:tf|Q~0_combout\ $end
$var wire 1 X \G:7:tf|Q~q\ $end
$var wire 1 Y \G:8:tf|Q~0_combout\ $end
$var wire 1 Z \G:8:tf|Q~q\ $end
$var wire 1 [ \tf_last|Q~0_combout\ $end
$var wire 1 \ \tf_last|Q~q\ $end
$var wire 1 ] and_link [8] $end
$var wire 1 ^ and_link [7] $end
$var wire 1 _ and_link [6] $end
$var wire 1 ` and_link [5] $end
$var wire 1 a and_link [4] $end
$var wire 1 b and_link [3] $end
$var wire 1 c and_link [2] $end
$var wire 1 d and_link [1] $end
$var wire 1 e and_link [0] $end
$var wire 1 f \ALT_INV_enb~input_o\ $end
$var wire 1 g \ALT_INV_reset_c~input_o\ $end
$var wire 1 h ALT_INV_and_link [4] $end
$var wire 1 i \tf_last|ALT_INV_Q~q\ $end
$var wire 1 j \G:8:tf|ALT_INV_Q~q\ $end
$var wire 1 k \G:7:tf|ALT_INV_Q~q\ $end
$var wire 1 l \G:6:tf|ALT_INV_Q~q\ $end
$var wire 1 m \G:5:tf|ALT_INV_Q~q\ $end
$var wire 1 n \G:4:tf|ALT_INV_Q~q\ $end
$var wire 1 o \G:3:tf|ALT_INV_Q~q\ $end
$var wire 1 p \G:2:tf|ALT_INV_Q~q\ $end
$var wire 1 q \G:1:tf|ALT_INV_Q~q\ $end
$var wire 1 r \tf1|ALT_INV_Q~q\ $end
$upscope $end
$upscope $end
$enddefinitions $end
#0
$dumpvars
0!
0"
0-
0.
1/
x0
11
12
13
14
15
16
07
08
09
xD
0E
0F
0G
0H
0I
0J
0K
0L
0M
0N
0O
0P
0Q
0R
0S
0T
0U
0V
0W
0X
0Y
0Z
0[
0\
1f
1g
1i
1j
1k
1l
1m
1n
1o
1p
1q
1r
0:
0;
0<
0=
0>
0?
0@
0A
0B
0C
x]
x^
x_
x`
0a
xb
xc
xd
xe
1h
0#
0$
0%
0&
0'
0(
0)
0*
0+
0,
$end
#5000
1!
18
1E
1F
#10000
0!
08
0E
0F
#15000
1!
18
1E
1F
#20000
0!
08
0E
0F
#25000
1!
18
1E
1F
#30000
0!
08
0E
0F
#35000
1!
18
1E
1F
#40000
0!
08
0E
0F
#45000
1!
18
1E
1F
#50000
0!
08
0E
0F
#55000
1!
18
1E
1F
#60000
0!
08
0E
0F
#65000
1!
18
1E
1F
#70000
0!
08
0E
0F
#75000
1!
18
1E
1F
#80000
0!
1"
08
17
1G
0E
0F
0f
1H
#85000
1!
18
1E
1F
1J
0r
0H
1K
1C
1,
#90000
0!
08
0E
0F
#95000
1!
18
1E
1F
0J
1L
0q
1r
1H
1B
0C
0,
1+
#100000
0!
08
0E
0F
#105000
1!
18
1E
1F
1J
0r
0H
0K
1M
1C
1,
#110000
0!
08
0E
0F
#115000
1!
18
1E
1F
0J
0L
1N
0p
1q
1r
1H
1A
0B
0C
0,
0+
1*
#120000
0!
08
0E
0F
#125000
1!
18
1E
1F
1J
0r
0H
1K
1C
1,
#130000
0!
08
0E
0F
#135000
1!
18
1E
1F
0J
1L
0q
1r
1H
1B
0C
0,
1+
#140000
0!
08
0E
0F
#145000
1!
18
1E
1F
1J
0r
0H
0K
0M
1O
1C
1,
#150000
0!
08
0E
0F
#155000
1!
18
1E
1F
0J
0L
0N
1P
0o
1p
1q
1r
1H
1@
0A
0B
0C
0,
0+
0*
1)
#160000
0!
1-
08
19
1I
0E
0F
0g
0P
1o
0O
0@
0)
#165000
1!
18
1E
1F
#170000
0!
08
0E
0F
#175000
1!
18
1E
1F
#180000
0!
08
0E
0F
#185000
1!
18
1E
1F
#190000
0!
08
0E
0F
#195000
1!
18
1E
1F
#200000
0!
08
0E
0F
#205000
1!
18
1E
1F
#210000
0!
08
0E
0F
#215000
1!
18
1E
1F
#220000
0!
08
0E
0F
#225000
1!
18
1E
1F
#230000
0!
08
0E
0F
#235000
1!
18
1E
1F
#240000
0!
08
0E
0F
#245000
1!
18
1E
1F
#250000
0!
08
0E
0F
#255000
1!
18
1E
1F
#260000
0!
08
0E
0F
#265000
1!
18
1E
1F
#270000
0!
08
0E
0F
#275000
1!
18
1E
1F
#280000
0!
08
0E
0F
#285000
1!
18
1E
1F
#290000
0!
08
0E
0F
#295000
1!
18
1E
1F
#300000
0!
08
0E
0F
#305000
1!
18
1E
1F
#310000
0!
0-
08
09
0I
0E
0F
1g
#315000
1!
18
1E
1F
1J
0r
0H
1K
1C
1,
#320000
0!
08
0E
0F
#325000
1!
18
1E
1F
0J
1L
0q
1r
1H
1B
0C
0,
1+
#330000
0!
08
0E
0F
#335000
1!
18
1E
1F
1J
0r
0H
0K
1M
1C
1,
#340000
0!
08
0E
0F
#345000
1!
18
1E
1F
0J
0L
1N
0p
1q
1r
1H
1A
0B
0C
0,
0+
1*
#350000
0!
08
0E
0F
#355000
1!
18
1E
1F
1J
0r
0H
1K
1C
1,
#360000
0!
08
0E
0F
#365000
1!
18
1E
1F
0J
1L
0q
1r
1H
1B
0C
0,
1+
#370000
0!
08
0E
0F
#375000
1!
18
1E
1F
1J
0r
0H
0K
0M
1O
1C
1,
#380000
0!
08
0E
0F
#385000
1!
18
1E
1F
0J
0L
0N
1P
0o
1p
1q
1r
1H
1@
0A
0B
0C
0,
0+
0*
1)
#390000
0!
08
0E
0F
#395000
1!
18
1E
1F
1J
0r
0H
1K
1C
1,
#400000
0!
08
0E
0F
#405000
1!
18
1E
1F
0J
1L
0q
1r
1H
1B
0C
0,
1+
#410000
0!
08
0E
0F
#415000
1!
18
1E
1F
1J
0r
0H
0K
1M
1C
1,
#420000
0!
08
0E
0F
#425000
1!
18
1E
1F
0J
0L
1N
0p
1q
1r
1H
1A
0B
0C
0,
0+
1*
#430000
0!
08
0E
0F
#435000
1!
18
1E
1F
1J
0r
0H
1K
1C
1,
#440000
0!
08
0E
0F
#445000
1!
18
1E
1F
0J
1L
0q
1r
1H
1B
0C
0,
1+
#450000
0!
08
0E
0F
#455000
1!
18
1E
1F
1J
0r
0H
0K
0M
0O
1Q
1C
1,
#460000
0!
08
0E
0F
#465000
1!
18
1E
1F
0J
0L
0N
0P
1R
0n
1o
1p
1q
1r
1H
1?
0@
0A
0B
0C
0,
0+
0*
0)
1(
#470000
0!
08
0E
0F
#475000
1!
18
1E
1F
1J
0r
0H
1K
1C
1,
#480000
0!
08
0E
0F
#485000
1!
18
1E
1F
0J
1L
0q
1r
1H
1B
0C
0,
1+
#490000
0!
08
0E
0F
#495000
1!
18
1E
1F
1J
0r
0H
0K
1M
1C
1,
#500000
0!
08
0E
0F
#505000
1!
18
1E
1F
0J
0L
1N
0p
1q
1r
1H
1A
0B
0C
0,
0+
1*
#510000
0!
08
0E
0F
#515000
1!
18
1E
1F
1J
0r
0H
1K
1C
1,
#520000
0!
08
0E
0F
#525000
1!
18
1E
1F
0J
1L
0q
1r
1H
1B
0C
0,
1+
#530000
0!
08
0E
0F
#535000
1!
18
1E
1F
1J
0r
0H
0K
0M
1O
1C
1,
#540000
0!
08
0E
0F
#545000
1!
18
1E
1F
0J
0L
0N
1P
0o
1p
1q
1r
1H
1@
0A
0B
0C
0,
0+
0*
1)
#550000
0!
08
0E
0F
#555000
1!
18
1E
1F
1J
0r
0H
1K
1C
1,
#560000
0!
08
0E
0F
#565000
1!
18
1E
1F
0J
1L
0q
1r
1H
1B
0C
0,
1+
#570000
0!
08
0E
0F
#575000
1!
18
1E
1F
1J
0r
0H
0K
1M
1C
1,
#580000
0!
08
0E
0F
#585000
1!
18
1E
1F
0J
0L
1N
0p
1q
1r
1H
1A
0B
0C
0,
0+
1*
#590000
0!
08
0E
0F
#595000
1!
18
1E
1F
1J
0r
0H
1K
1C
1,
#600000
0!
08
0E
0F
#605000
1!
18
1E
1F
0J
1L
0q
1r
1H
1B
0C
0,
1+
#610000
0!
08
0E
0F
#615000
1!
18
1E
1F
1J
0r
0H
0K
0M
0O
0Q
1a
0h
1C
1S
1,
#620000
0!
08
0E
0F
#625000
1!
18
1E
1F
0J
0L
0N
0P
0R
1T
0m
1n
1o
1p
1q
1r
1H
0a
0S
1U
1h
1>
0?
0@
0A
0B
0C
1S
0U
0,
0+
0*
0)
0(
1'
#630000
0!
08
0E
0F
#635000
1!
18
1E
1F
1J
0r
0H
1K
1C
1,
#640000
0!
08
0E
0F
#645000
1!
18
1E
1F
0J
1L
0q
1r
1H
1B
0C
0,
1+
#650000
0!
08
0E
0F
#655000
1!
18
1E
1F
1J
0r
0H
0K
1M
1C
1,
#660000
0!
08
0E
0F
#665000
1!
18
1E
1F
0J
0L
1N
0p
1q
1r
1H
1A
0B
0C
0,
0+
1*
#670000
0!
08
0E
0F
#675000
1!
18
1E
1F
1J
0r
0H
1K
1C
1,
#680000
0!
08
0E
0F
#685000
1!
18
1E
1F
0J
1L
0q
1r
1H
1B
0C
0,
1+
#690000
0!
08
0E
0F
#695000
1!
18
1E
1F
1J
0r
0H
0K
0M
1O
1C
1,
#700000
0!
08
0E
0F
#705000
1!
18
1E
1F
0J
0L
0N
1P
0o
1p
1q
1r
1H
1@
0A
0B
0C
0,
0+
0*
1)
#710000
0!
08
0E
0F
#715000
1!
18
1E
1F
1J
0r
0H
1K
1C
1,
#720000
0!
08
0E
0F
#725000
1!
18
1E
1F
0J
1L
0q
1r
1H
1B
0C
0,
1+
#730000
0!
08
0E
0F
#735000
1!
18
1E
1F
1J
0r
0H
0K
1M
1C
1,
#740000
0!
08
0E
0F
#745000
1!
18
1E
1F
0J
0L
1N
0p
1q
1r
1H
1A
0B
0C
0,
0+
1*
#750000
0!
08
0E
0F
#755000
1!
18
1E
1F
1J
0r
0H
1K
1C
1,
#760000
0!
08
0E
0F
#765000
1!
18
1E
1F
0J
1L
0q
1r
1H
1B
0C
0,
1+
#770000
0!
08
0E
0F
#775000
1!
18
1E
1F
1J
0r
0H
0K
0M
0O
1Q
1C
1,
#780000
0!
08
0E
0F
#785000
1!
18
1E
1F
0J
0L
0N
0P
1R
0n
1o
1p
1q
1r
1H
1?
0@
0A
0B
0C
0,
0+
0*
0)
1(
#790000
0!
08
0E
0F
#795000
1!
18
1E
1F
1J
0r
0H
1K
1C
1,
#800000
0!
08
0E
0F
#805000
1!
18
1E
1F
0J
1L
0q
1r
1H
1B
0C
0,
1+
#810000
0!
08
0E
0F
#815000
1!
18
1E
1F
1J
0r
0H
0K
1M
1C
1,
#820000
0!
08
0E
0F
#825000
1!
18
1E
1F
0J
0L
1N
0p
1q
1r
1H
1A
0B
0C
0,
0+
1*
#830000
0!
08
0E
0F
#835000
1!
18
1E
1F
1J
0r
0H
1K
1C
1,
#840000
0!
08
0E
0F
#845000
1!
18
1E
1F
0J
1L
0q
1r
1H
1B
0C
0,
1+
#850000
0!
08
0E
0F
#855000
1!
18
1E
1F
1J
0r
0H
0K
0M
1O
1C
1,
#860000
0!
08
0E
0F
#865000
1!
18
1E
1F
0J
0L
0N
1P
0o
1p
1q
1r
1H
1@
0A
0B
0C
0,
0+
0*
1)
#870000
0!
08
0E
0F
#875000
1!
18
1E
1F
1J
0r
0H
1K
1C
1,
#880000
0!
08
0E
0F
#885000
1!
18
1E
1F
0J
1L
0q
1r
1H
1B
0C
0,
1+
#890000
0!
08
0E
0F
#895000
1!
18
1E
1F
1J
0r
0H
0K
1M
1C
1,
#900000
0!
08
0E
0F
#905000
1!
18
1E
1F
0J
0L
1N
0p
1q
1r
1H
1A
0B
0C
0,
0+
1*
#910000
0!
08
0E
0F
#915000
1!
18
1E
1F
1J
0r
0H
1K
1C
1,
#920000
0!
08
0E
0F
#925000
1!
18
1E
1F
0J
1L
0q
1r
1H
1B
0C
0,
1+
#930000
0!
08
0E
0F
#935000
1!
18
1E
1F
1J
0r
0H
0K
0M
0O
0Q
1a
0h
1C
0S
1U
1,
#940000
0!
08
0E
0F
#945000
1!
18
1E
1F
0J
0L
0N
0P
0R
0T
1V
0l
1m
1n
1o
1p
1q
1r
1H
0a
1S
1h
1=
0>
0?
0@
0A
0B
0C
0S
0,
0+
0*
0)
0(
0'
1&
#950000
0!
08
0E
0F
#955000
1!
18
1E
1F
1J
0r
0H
1K
1C
1,
#960000
0!
08
0E
0F
#965000
1!
18
1E
1F
0J
1L
0q
1r
1H
1B
0C
0,
1+
#970000
0!
08
0E
0F
#975000
1!
18
1E
1F
1J
0r
0H
0K
1M
1C
1,
#980000
0!
08
0E
0F
#985000
1!
18
1E
1F
0J
0L
1N
0p
1q
1r
1H
1A
0B
0C
0,
0+
1*
#990000
0!
08
0E
0F
#995000
1!
18
1E
1F
1J
0r
0H
1K
1C
1,
